{
  "development": {
    "username": "root",
    "password": "root password 123",
    "database": "ecommerce_bot",
    "host": "127.0.0.1",
    "dialect": "mysql",
    "operatorsAliases": false
  },
  "test": {
    "username": "newuser",
    "password": null,
    "database": "database_test",
    "host": "127.0.0.1",
    "dialect": "mysql",
    "operatorsAliases": false
  },
  "production": {
    "username": "knigccpq_ecommerce_bot",
    "password": "1212#43#$#%&^*!@#%&^D",
    "database": "knigccpq_ecommerce_bot",
    "host": "localhost",
    "dialect": "mysql",
    "operatorsAliases": false
  }
}
